{"current_page":1,"data":[{"id":1,"name":"Tapis Moderne \u00c9l\u00e9gant","slug":"tapis-moderne-l-gant","description":"Un magnifique tapis moderne qui apportera une touche d'\u00e9l\u00e9gance \u00e0 votre int\u00e9rieur. Fabriqu\u00e9 avec des mat\u00e9riaux de qualit\u00e9 sup\u00e9rieure.","short_description":"Tapis moderne \u00e9l\u00e9gant pour salon","price":"899.00","sale_price":"699.00","category_id":5,"type_id":9,"type_category_id":8,"material":"Laine","size":"200x300","max_longueur":null,"max_largeur":null,"color":[{"name":"Gris","index":1}],"stock":15,"featured":true,"best_seller":true,"status":"active","created_at":"2025-12-13T17:48:58.000000Z","updated_at":"2025-12-18T10:57:11.000000Z","category":{"id":5,"type_id":9,"name":"Marocain on stock","slug":"marocain-on-stock","description":"Tapis marocains traditionnels disponibles en stock, c\u00e9l\u00e8bres pour leurs formes g\u00e9om\u00e9triques, leurs textures naturelles et leur caract\u00e8re chaleureux. Parfaits pour une d\u00e9coration \u00e0 la fois authentique et conviviale.","image":"assets\/images\/categories\/694003c404f66_1765802948.png","created_at":"2025-12-13T17:48:58.000000Z","updated_at":"2025-12-16T14:52:28.000000Z"},"images":[{"id":7,"product_id":1,"image_path":"assets\/images\/products\/693fceecb7a71_1765789420.jpeg","is_primary":true,"display_order":0,"created_at":"2025-12-15T10:03:40.000000Z","updated_at":null}],"type":{"id":9,"name":"fixe","description":"fixe","created_at":"2025-12-13T17:53:24.000000Z","updated_at":"2025-12-13T17:53:24.000000Z"}},{"id":2,"name":"Tapis Oriental Traditionnel","slug":"tapis-oriental-traditionnel","description":"Tapis oriental authentique aux motifs traditionnels. Parfait pour ajouter une touche d'exotisme \u00e0 votre d\u00e9coration.","short_description":"Tapis oriental traditionnel","price":"1299.00","sale_price":null,"category_id":2,"type_id":9,"type_category_id":null,"material":"Soie et Laine","size":"250x350","max_longueur":null,"max_largeur":null,"color":[{"name":"Rouge","index":1},{"name":"bleu","index":2}],"stock":8,"featured":true,"best_seller":false,"status":"active","created_at":"2025-12-13T17:48:58.000000Z","updated_at":"2025-12-15T10:50:22.000000Z","category":{"id":2,"type_id":9,"name":"L'Iran on stock","slug":"l-iran-on-stock","description":"Tapis iraniens classiques disponibles imm\u00e9diatement, reconnus pour leurs motifs raffin\u00e9s, leur richesse culturelle et leur qualit\u00e9 exceptionnelle. Des pi\u00e8ces intemporelles id\u00e9ales pour apporter \u00e9l\u00e9gance et authenticit\u00e9 \u00e0 votre int\u00e9rieur.","image":"assets\/images\/categories\/693c4a4d46d1c_1765542477.jpeg","created_at":"2025-12-13T17:48:58.000000Z","updated_at":"2025-12-16T14:51:50.000000Z"},"images":[{"id":8,"product_id":2,"image_path":"assets\/images\/products\/693fcf14719b2_1765789460.jpeg","is_primary":true,"display_order":0,"created_at":"2025-12-15T10:04:20.000000Z","updated_at":null}],"type":{"id":9,"name":"fixe","description":"fixe","created_at":"2025-12-13T17:53:24.000000Z","updated_at":"2025-12-13T17:53:24.000000Z"}},{"id":3,"name":"Tapis Marocain Beni Ourain","slug":"tapis-marocain-beni-ourain","description":"Tapis marocain Beni Ourain authentique, tiss\u00e9 \u00e0 la main par des artisans marocains. Design minimaliste et \u00e9l\u00e9gant.","short_description":"Tapis marocain Beni Ourain","price":"150.00","sale_price":"120.00","category_id":10,"type_id":8,"type_category_id":null,"material":"Laine","size":"300x200","max_longueur":300,"max_largeur":200,"color":[{"name":"Beige","index":1},{"name":"noir","index":2}],"stock":12,"featured":true,"best_seller":true,"status":"active","created_at":"2025-12-13T17:48:58.000000Z","updated_at":"2026-03-11T13:06:44.000000Z","category":{"id":10,"type_id":8,"name":"L\u2019Iran \u2013 Sur mesure","slug":"l-iran-sur-mesure","description":"Tapis iraniens confectionn\u00e9s sur mesure, inspir\u00e9s de l\u2019art persan traditionnel. Chaque pi\u00e8ce est r\u00e9a","image":"assets\/images\/categories\/694003644ff69_1765802852.png","created_at":"2025-12-13T17:58:50.000000Z","updated_at":"2025-12-16T14:53:35.000000Z"},"images":[{"id":9,"product_id":3,"image_path":"assets\/images\/products\/693fd19e09047_1765790110.jpeg","is_primary":true,"display_order":0,"created_at":"2025-12-15T10:15:10.000000Z","updated_at":null}],"type":{"id":8,"name":"sur_mesure","description":"sur_mesure","created_at":"2025-12-13T17:53:10.000000Z","updated_at":"2025-12-13T17:53:10.000000Z"}},{"id":5,"name":"Tapis Classique Persan","slug":"tapis-classique-persan","description":"Tapis persan classique aux motifs raffin\u00e9s. Un investissement pour votre int\u00e9rieur qui durera des g\u00e9n\u00e9rations.","short_description":"Tapis persan classique","price":"249.00","sale_price":"200.00","category_id":13,"type_id":8,"type_category_id":null,"material":"Soie et Laine","size":"300x300","max_longueur":null,"max_largeur":null,"color":[{"name":"Marron","index":1},{"name":"Orange","index":2},{"name":"Rose","index":3}],"stock":5,"featured":true,"best_seller":false,"status":"active","created_at":"2025-12-13T17:48:58.000000Z","updated_at":"2025-12-15T11:55:04.000000Z","category":{"id":13,"type_id":8,"name":"Turc  sur_mesure","slug":"turc-sur-mesure","description":"Tapis turcs confectionn\u00e9s sur mesure, alliant tradition orientale et \u00e9l\u00e9gance. Chaque tapis est r\u00e9alis\u00e9 selon vos besoins, avec des motifs inspir\u00e9s de l\u2019art turc et une qualit\u00e9 remarquable.","image":"assets\/images\/categories\/69400451dddd9_1765803089.png","created_at":"2025-12-13T17:59:39.000000Z","updated_at":"2025-12-16T14:54:56.000000Z"},"images":[{"id":13,"product_id":5,"image_path":"assets\/images\/products\/693fd3921f83e_1765790610.jpeg","is_primary":true,"display_order":0,"created_at":"2025-12-15T10:23:30.000000Z","updated_at":null}],"type":{"id":8,"name":"sur_mesure","description":"sur_mesure","created_at":"2025-12-13T17:53:10.000000Z","updated_at":"2025-12-13T17:53:10.000000Z"}},{"id":7,"name":"Tapis Moderne - fixe","slug":"tapis-moderne-fixe","description":"Tapis Moderne - fixe de haute qualit\u00e9, s\u00e9lectionn\u00e9 automatiquement pour la d\u00e9mo.","short_description":"Tapis Moderne - fixe","price":"900.00","sale_price":null,"category_id":1,"type_id":9,"type_category_id":null,"material":"Laine","size":"200x300","max_longueur":null,"max_largeur":null,"color":["Rose"],"stock":10,"featured":true,"best_seller":false,"status":"active","created_at":"2025-12-15T12:13:42.000000Z","updated_at":"2026-03-11T14:23:54.000000Z","category":{"id":1,"type_id":9,"name":"Moderne on stock","slug":"moderne-on-stock","description":"Tapis au design moderne et contemporain, disponibles imm\u00e9diatement. Des mod\u00e8les tendance qui apportent fra\u00eecheur, harmonie et style minimaliste \u00e0 vos espaces de vie.","image":"assets\/images\/categories\/693c4a2db65c5_1765542445.jpeg","created_at":"2025-12-13T17:48:58.000000Z","updated_at":"2025-12-16T14:54:20.000000Z"},"images":[{"id":15,"product_id":7,"image_path":"assets\/images\/products\/69395baec2fc0_1765366702.jpeg","is_primary":true,"display_order":1,"created_at":"2025-12-15T12:13:42.000000Z","updated_at":null}],"type":{"id":9,"name":"fixe","description":"fixe","created_at":"2025-12-13T17:53:24.000000Z","updated_at":"2025-12-13T17:53:24.000000Z"}},{"id":8,"name":"Tapis Classique - fixe","slug":"tapis-classique-fixe","description":"Tapis Classique - fixe de haute qualit\u00e9, s\u00e9lectionn\u00e9 automatiquement pour la d\u00e9mo.","short_description":"Tapis Classique - fixe","price":"1000.00","sale_price":null,"category_id":2,"type_id":9,"type_category_id":null,"material":"Laine","size":"200x300","max_longueur":null,"max_largeur":null,"color":[{"name":"Beige","index":1},{"name":"Rouge","index":2}],"stock":10,"featured":true,"best_seller":false,"status":"active","created_at":"2025-12-15T12:13:42.000000Z","updated_at":"2026-03-11T14:23:54.000000Z","category":{"id":2,"type_id":9,"name":"L'Iran on stock","slug":"l-iran-on-stock","description":"Tapis iraniens classiques disponibles imm\u00e9diatement, reconnus pour leurs motifs raffin\u00e9s, leur richesse culturelle et leur qualit\u00e9 exceptionnelle. Des pi\u00e8ces intemporelles id\u00e9ales pour apporter \u00e9l\u00e9gance et authenticit\u00e9 \u00e0 votre int\u00e9rieur.","image":"assets\/images\/categories\/693c4a4d46d1c_1765542477.jpeg","created_at":"2025-12-13T17:48:58.000000Z","updated_at":"2025-12-16T14:51:50.000000Z"},"images":[{"id":16,"product_id":8,"image_path":"assets\/images\/products\/69395c24407a2_1765366820.jpeg","is_primary":true,"display_order":1,"created_at":"2025-12-15T12:13:42.000000Z","updated_at":null}],"type":{"id":9,"name":"fixe","description":"fixe","created_at":"2025-12-13T17:53:24.000000Z","updated_at":"2025-12-13T17:53:24.000000Z"}},{"id":10,"name":"Tapis Turc - fixe","slug":"tapis-turc-fixe","description":"Tapis Turc - fixe de haute qualit\u00e9, s\u00e9lectionn\u00e9 automatiquement pour la d\u00e9mo.","short_description":"Tapis Turc - fixe","price":"1200.00","sale_price":null,"category_id":4,"type_id":9,"type_category_id":null,"material":"Laine","size":"200x300","max_longueur":null,"max_largeur":null,"color":["Blanch"],"stock":10,"featured":true,"best_seller":false,"status":"active","created_at":"2025-12-15T12:13:42.000000Z","updated_at":"2026-03-11T14:23:54.000000Z","category":{"id":4,"type_id":9,"name":"Turc on stock","slug":"turc-on-stock","description":"Tapis turcs de qualit\u00e9 disponibles en stock, appr\u00e9ci\u00e9s pour leur finesse, leur r\u00e9sistance et leurs motifs \u00e9l\u00e9gants. Un choix id\u00e9al pour une d\u00e9coration raffin\u00e9e et durable.","image":"assets\/images\/categories\/694004639145b_1765803107.png","created_at":"2025-12-13T17:48:58.000000Z","updated_at":"2025-12-16T14:55:08.000000Z"},"images":[{"id":18,"product_id":10,"image_path":"assets\/images\/products\/69395ce8d5747_1765367016.jpeg","is_primary":true,"display_order":1,"created_at":"2025-12-15T12:13:42.000000Z","updated_at":null}],"type":{"id":9,"name":"fixe","description":"fixe","created_at":"2025-12-13T17:53:24.000000Z","updated_at":"2025-12-13T17:53:24.000000Z"}},{"id":11,"name":"Tapis Marocain - fixe","slug":"tapis-marocain-fixe","description":"Tapis Marocain - fixe de haute qualit\u00e9, s\u00e9lectionn\u00e9 automatiquement pour la d\u00e9mo.","short_description":"Tapis Marocain - fixe","price":"1300.00","sale_price":null,"category_id":5,"type_id":9,"type_category_id":3,"material":"Laine","size":"200x300","max_longueur":null,"max_largeur":null,"color":[{"name":"Violet","index":1}],"stock":10,"featured":false,"best_seller":false,"status":"active","created_at":"2025-12-15T12:13:42.000000Z","updated_at":"2025-12-18T10:56:56.000000Z","category":{"id":5,"type_id":9,"name":"Marocain on stock","slug":"marocain-on-stock","description":"Tapis marocains traditionnels disponibles en stock, c\u00e9l\u00e8bres pour leurs formes g\u00e9om\u00e9triques, leurs textures naturelles et leur caract\u00e8re chaleureux. Parfaits pour une d\u00e9coration \u00e0 la fois authentique et conviviale.","image":"assets\/images\/categories\/694003c404f66_1765802948.png","created_at":"2025-12-13T17:48:58.000000Z","updated_at":"2025-12-16T14:52:28.000000Z"},"images":[{"id":19,"product_id":11,"image_path":"assets\/images\/products\/69395d0334fbc_1765367043.jpeg","is_primary":true,"display_order":1,"created_at":"2025-12-15T12:13:42.000000Z","updated_at":null}],"type":{"id":9,"name":"fixe","description":"fixe","created_at":"2025-12-13T17:53:24.000000Z","updated_at":"2025-12-13T17:53:24.000000Z"}},{"id":12,"name":"Tapis Marocain - sur_mesure","slug":"tapis-marocain-sur-mesure","description":"Tapis Marocain - sur_mesure de haute qualit\u00e9, s\u00e9lectionn\u00e9 automatiquement pour la d\u00e9mo.","short_description":"Tapis Marocain - sur_mesure","price":"1600.00","sale_price":null,"category_id":8,"type_id":8,"type_category_id":11,"material":"Laine","size":"200x300","max_longueur":null,"max_largeur":null,"color":[{"name":"Bleu","index":1}],"stock":10,"featured":false,"best_seller":false,"status":"active","created_at":"2025-12-15T12:13:42.000000Z","updated_at":"2025-12-18T10:56:06.000000Z","category":{"id":8,"type_id":8,"name":"Marocain  sur_mesure","slug":"marocain-sur-mesure","description":"Tapis marocains r\u00e9alis\u00e9s sur mesure, m\u00ealant tradition ancestrale et personnalisation moderne. Des cr\u00e9ations uniques adapt\u00e9es \u00e0 votre espace, avec des motifs authentiques et une finition artisanale soign\u00e9e.","image":"assets\/images\/categories\/694003b15b116_1765802929.png","created_at":"2025-12-13T17:58:04.000000Z","updated_at":"2025-12-16T14:52:50.000000Z"},"images":[{"id":20,"product_id":12,"image_path":"assets\/images\/products\/69398e8e60665_1765379726.jpeg","is_primary":true,"display_order":1,"created_at":"2025-12-15T12:13:42.000000Z","updated_at":null}],"type":{"id":8,"name":"sur_mesure","description":"sur_mesure","created_at":"2025-12-13T17:53:10.000000Z","updated_at":"2025-12-13T17:53:10.000000Z"}},{"id":13,"name":"Tapis Classique - sur_mesure","slug":"tapis-classique-sur-mesure","description":"Tapis Classique - sur_mesure de haute qualit\u00e9, s\u00e9lectionn\u00e9 automatiquement pour la d\u00e9mo.","short_description":"Tapis Classique - sur_mesure","price":"1800.00","sale_price":null,"category_id":10,"type_id":8,"type_category_id":null,"material":"Laine","size":"200x300","max_longueur":null,"max_largeur":null,"color":null,"stock":10,"featured":false,"best_seller":false,"status":"active","created_at":"2025-12-15T12:13:42.000000Z","updated_at":"2025-12-18T11:10:23.000000Z","category":{"id":10,"type_id":8,"name":"L\u2019Iran \u2013 Sur mesure","slug":"l-iran-sur-mesure","description":"Tapis iraniens confectionn\u00e9s sur mesure, inspir\u00e9s de l\u2019art persan traditionnel. Chaque pi\u00e8ce est r\u00e9a","image":"assets\/images\/categories\/694003644ff69_1765802852.png","created_at":"2025-12-13T17:58:50.000000Z","updated_at":"2025-12-16T14:53:35.000000Z"},"images":[{"id":89,"product_id":13,"image_path":"assets\/images\/products\/6943d30fde8ee_1766052623.jpeg","is_primary":true,"display_order":0,"created_at":"2025-12-18T11:10:23.000000Z","updated_at":null}],"type":{"id":8,"name":"sur_mesure","description":"sur_mesure","created_at":"2025-12-13T17:53:10.000000Z","updated_at":"2025-12-13T17:53:10.000000Z"}},{"id":14,"name":"Tapis Moderne - sur_mesure","slug":"tapis-moderne-sur-mesure","description":"Tapis Moderne - sur_mesure de haute qualit\u00e9, s\u00e9lectionn\u00e9 automatiquement pour la d\u00e9mo.","short_description":"Tapis Moderne - sur_mesure","price":"1900.00","sale_price":null,"category_id":11,"type_id":8,"type_category_id":null,"material":"Laine","size":"200x300","max_longueur":null,"max_largeur":null,"color":null,"stock":10,"featured":false,"best_seller":false,"status":"active","created_at":"2025-12-15T12:13:42.000000Z","updated_at":"2025-12-18T11:10:42.000000Z","category":{"id":11,"type_id":8,"name":"Moderne  sur_mesure","slug":"moderne-sur-mesure","description":"Tapis modernes con\u00e7us sur mesure, aux lignes \u00e9pur\u00e9es et aux couleurs actuelles. Id\u00e9als pour les int\u00e9rieurs contemporains, ils offrent une libert\u00e9 totale de dimensions et un rendu design sur-mesure.","image":"assets\/images\/categories\/694003f5773ae_1765802997.png","created_at":"2025-12-13T17:59:01.000000Z","updated_at":"2025-12-16T14:54:37.000000Z"},"images":[{"id":90,"product_id":14,"image_path":"assets\/images\/products\/6943d3224ed95_1766052642.jpeg","is_primary":true,"display_order":0,"created_at":"2025-12-18T11:10:42.000000Z","updated_at":null}],"type":{"id":8,"name":"sur_mesure","description":"sur_mesure","created_at":"2025-12-13T17:53:10.000000Z","updated_at":"2025-12-13T17:53:10.000000Z"}},{"id":16,"name":"Tapis Turc - sur_mesure","slug":"tapis-turc-sur-mesure","description":"Tapis Turc - sur_mesure de haute qualit\u00e9, s\u00e9lectionn\u00e9 automatiquement pour la d\u00e9mo.","short_description":"Tapis Turc - sur_mesure","price":"2100.00","sale_price":null,"category_id":13,"type_id":8,"type_category_id":null,"material":"Laine","size":"200x300","max_longueur":null,"max_largeur":null,"color":["Rose"],"stock":10,"featured":false,"best_seller":false,"status":"active","created_at":"2025-12-15T12:13:43.000000Z","updated_at":"2025-12-15T12:20:55.000000Z","category":{"id":13,"type_id":8,"name":"Turc  sur_mesure","slug":"turc-sur-mesure","description":"Tapis turcs confectionn\u00e9s sur mesure, alliant tradition orientale et \u00e9l\u00e9gance. Chaque tapis est r\u00e9alis\u00e9 selon vos besoins, avec des motifs inspir\u00e9s de l\u2019art turc et une qualit\u00e9 remarquable.","image":"assets\/images\/categories\/69400451dddd9_1765803089.png","created_at":"2025-12-13T17:59:39.000000Z","updated_at":"2025-12-16T14:54:56.000000Z"},"images":[{"id":24,"product_id":16,"image_path":"assets\/images\/products\/69398fd69354c_1765380054.jpeg","is_primary":true,"display_order":1,"created_at":"2025-12-15T12:13:43.000000Z","updated_at":null}],"type":{"id":8,"name":"sur_mesure","description":"sur_mesure","created_at":"2025-12-13T17:53:10.000000Z","updated_at":"2025-12-13T17:53:10.000000Z"}}],"first_page_url":"http:\/\/localhost:8000\/api\/products?page=1","from":1,"last_page":5,"last_page_url":"http:\/\/localhost:8000\/api\/products?page=5","links":[{"url":null,"label":"&laquo; Previous","active":false},{"url":"http:\/\/localhost:8000\/api\/products?page=1","label":"1","active":true},{"url":"http:\/\/localhost:8000\/api\/products?page=2","label":"2","active":false},{"url":"http:\/\/localhost:8000\/api\/products?page=3","label":"3","active":false},{"url":"http:\/\/localhost:8000\/api\/products?page=4","label":"4","active":false},{"url":"http:\/\/localhost:8000\/api\/products?page=5","label":"5","active":false},{"url":"http:\/\/localhost:8000\/api\/products?page=2","label":"Next &raquo;","active":false}],"next_page_url":"http:\/\/localhost:8000\/api\/products?page=2","path":"http:\/\/localhost:8000\/api\/products","per_page":12,"prev_page_url":null,"to":12,"total":60}
